<svg width="115.99999999999999" height="93" xmlns="http://www.w3.org/2000/svg">
 <g>
  <title>Layer 1</title>

  <g fill="#3589ff" featurekey="symbolGroupContainer" id="SvgjsG3417">
   <rect x="3" y="3" id="svg_1" ry="10" rx="10" height="87" width="110" xmlns="http://www.w3.org/2000/svg"/>
  </g>
  <g fill="#ffffff" transform="matrix(1.80856, 0, 0, 1.80856, 10.4168, -2.24512)" featurekey="symbolFeature-0" id="SvgjsG3418">
   <polygon id="svg_2" stroke-miterlimit="10" stroke=" #ffffff" fill=" none" points="6.958770751953125,24.058780670166016 27.458770751953125,33.85878372192383 45.65876770019531,24.058780670166016 26.258773803710938,13.958782196044922 " class="st0" xmlns="http://www.w3.org/2000/svg"/>
   <path id="svg_3" stroke-miterlimit="10" stroke=" #ffffff" fill=" none" d="m16.15877,28.65878l0,7c0,0 9.5,9.2 20.9,0" class="st0" xmlns="http://www.w3.org/2000/svg"/>
   <line id="svg_4" stroke-miterlimit="10" stroke=" #ffffff" fill=" none" y2="30.65878" x2="43.15877" y1="25.65878" x1="43.15877" class="st0" xmlns="http://www.w3.org/2000/svg"/>
   <circle id="svg_5" stroke-miterlimit="10" stroke=" #ffffff" fill=" none" r="1.6973" cy="32.05878" cx="42.85877" class="st0" xmlns="http://www.w3.org/2000/svg"/>
  </g>
  <path id="svg_7" d="m48.46935,51.58097l11.06932,-17.31622l11.06932,17.31622l-22.13864,0z" fill="white"/>
 </g>
</svg>